<?xml version="1.0" standalone="no"?>
<!DOCTYPE svg PUBLIC "-//W3C//DTD SVG 1.1//EN" "http://www.w3.org/Graphics/SVG/1.1/DTD/svg11.dtd" >
<svg xmlns="http://www.w3.org/2000/svg">
<metadata>Generated by IcoMoon</metadata>
<defs>
<font id="candid" horiz-adv-x="1024">
<font-face units-per-em="1024" ascent="960" descent="-64" />
<missing-glyph horiz-adv-x="1024" />
<glyph unicode="&#x20;" horiz-adv-x="512" d="" />
<glyph unicode="&#xe600;" glyph-name="candid-one" horiz-adv-x="4608" d="M898.795 210.709c0-194.859-179.776-61.568-190.656 56.427-81.707-169.216 81.685-405.141 283.221-307.691 157.995 71.765 125.312 364.096-217.877 461.547l245.141-10.325c108.928-66.624 364.928-215.36 631.808-287.125 98.069-25.621 201.557-41.045 294.144-41.045 419.435 15.424 517.461 251.285 517.461 364.096 0 112.832-98.027 348.757-517.461 364.139-92.587 5.12-196.075-15.381-294.144-41.045-266.88-71.808-522.88-220.501-631.808-287.211l-245.141-5.099c343.189 92.331 375.872 384.597 217.877 461.547-201.536 92.245-364.928-143.573-283.221-307.691 10.88 112.853 190.656 246.144 190.656 51.264 0-117.909-119.872-179.499-212.416-210.261l-686.379-25.643 686.379-25.6c92.544-30.805 212.416-92.352 212.416-210.283zM1813.867 513.344c-43.563 5.035-87.147 10.155-130.731 10.155-10.923 0-21.803-5.12-32.704-5.12-32.619-5.035-65.323-10.219-98.027-15.381-168.853-20.523-337.707-15.36-506.56-20.523 125.269 51.307 370.411 143.616 604.587 189.76 305.045 61.525 599.211 51.243 599.211-225.643 0-276.907-294.165-287.147-599.211-225.664-234.176 46.208-479.317 138.517-604.587 189.739 168.853-5.077 337.707 0 506.56-15.317 32.704-5.163 65.408-15.36 98.027-20.565 10.901 0 21.781 0 32.704-5.163 43.584 0 87.168 5.163 130.731 10.368 87.147 15.36 174.315 30.677 261.44 66.603-87.125 35.883-174.293 56.405-261.44 66.752zM2837.888 231.275c-27.221-148.779-119.829 15.339-108.928-118.016 16.32-138.453 294.101-138.453 245.099 61.589-32.683 148.693-163.392 225.6-261.461 256.384 92.608-5.205 179.755-10.24 266.923-15.403 16.32-51.243 65.365-92.288 130.709-92.288 59.925 0 108.971 35.904 125.291 87.125 59.904 0 114.389 0 168.853 0 16.363-51.221 65.387-87.125 125.291-87.125s114.347 35.904 130.731 87.125c54.443 0 108.949 5.163 163.371 5.163 10.901-56.384 65.387-92.288 130.731-92.288 65.387 0 119.851 46.080 130.731 102.485 81.728 5.205 168.832 10.325 256.043 20.565-87.211 10.261-174.315 15.403-256.043 20.48-10.88 61.568-65.344 107.755-130.731 107.755-65.344 0-119.829-41.045-130.731-97.451-54.421 0-108.928 5.099-163.371 5.099-16.384 51.307-70.827 92.352-130.731 92.352s-108.928-41.045-125.291-92.352c-54.464 0-108.949 0-168.853 0-16.32 51.307-65.365 92.352-125.291 92.352-65.344 0-114.389-41.045-130.709-97.451-87.168-5.141-174.315-10.304-266.923-15.381 98.069 30.784 228.779 107.712 261.461 256.448 49.003 199.936-228.779 199.936-245.099 66.624-10.901-138.432 81.707 25.664 108.928-123.029 16.341-112.853-108.928-174.4-174.293-200.043-54.485-5.141-114.389-10.304-168.853-15.403 54.464-5.141 114.368-10.24 168.853-15.36 65.365-25.643 190.635-87.189 174.293-199.957zM4472 323.541c76.245 0 136.149 56.448 136.149 123.051 0 71.787-59.904 128.235-136.149 128.235-70.805 0-130.731-56.448-130.731-128.235 0-71.808 59.925-123.051 130.731-123.051z" />
<glyph unicode="&#xe601;" glyph-name="candid-shape-four" horiz-adv-x="5996" d="M4158.507 423.388v8.269l-296.080-11.155c-85.963-30.783-209.503-92.369-209.503-210.506 0-195.033 182.65-61.586 193.396 56.51 75.197-169.387-85.942-405.58-284.721-308.053-155.818 71.861-123.52 364.543 214.866 462.050l-236.357-10.275c-112.795-66.682-365.28-215.644-623.148-287.504-102.070-25.605-204.1-41.037-295.425-41.037-413.644 15.432-510.332 251.543-510.332 364.502 0 112.939 96.688 349.193 510.332 364.564 91.325 5.137 193.355-15.371 295.425-41.078 257.868-71.902 510.352-220.76 623.148-287.566l236.357-5.096c-338.386 92.43-370.683 385.072-214.866 462.070 198.779 92.41 359.918-143.701 284.721-308.053-10.745 112.98-193.396 246.467-193.396 51.373 0-118.096 123.541-179.744 209.503-210.547l296.080-11.134v11.421h1837.78v-48.753h-1837.78zM2750.438 513.014c42.981 5.096 85.963 10.213 128.924 10.213 10.766 0 21.511-5.117 37.598-5.117 26.894-5.096 59.089-10.275 91.346-15.453 166.522-20.549 333.085-15.371 499.566-20.549-123.541 51.393-359.877 143.803-590.912 189.978-306.191 61.627-590.891 51.373-590.891-225.898 0-277.209 284.7-287.504 590.891-225.918 231.035 46.236 467.371 138.707 590.912 189.957-166.481-5.096-333.044 0-499.566-15.35-32.256-5.158-64.452-15.412-91.346-20.549-16.087 0-26.833 0-37.598-5.158-42.961 0-85.942 5.158-128.924 10.295-85.942 15.412-171.905 30.762-257.827 66.723 85.922 35.92 171.884 56.469 257.827 66.826zM1740.561 230.606c26.812-148.92 118.199 15.391 107.392-118.137-10.725-138.646-284.659-138.646-241.719 61.627 32.236 148.9 161.139 225.918 257.868 256.742-85.963-5.199-177.288-10.336-263.21-15.473-10.807-51.312-64.513-92.369-128.965-92.369-59.089 0-107.433 35.982-123.561 87.232-53.706 0-107.433 0-166.502 0-16.108-51.25-64.492-87.232-123.582-87.232s-112.754 35.982-128.883 87.232c-53.706 0-107.494 5.137-161.16 5.137-10.745-56.387-64.492-92.369-123.582-92.369-69.834 0-123.541 46.174-134.286 102.644-80.6 5.199-166.543 10.316-247.122 20.549 80.58 10.275 166.522 15.453 247.122 20.529 10.745 61.627 64.452 107.883 134.286 107.883 59.089 0 112.836-41.098 123.582-97.588 53.665 0 107.453 5.096 161.16 5.096 16.128 51.393 69.794 92.492 128.883 92.492s107.474-41.098 123.582-92.492c59.069 0 112.795 0 166.502 0 16.128 51.393 64.472 92.492 123.561 92.492 64.452 0 118.158-41.098 128.965-97.588 85.922-5.158 177.247-10.295 263.21-15.371-96.729 30.762-225.632 107.801-257.868 256.681-42.94 200.191 230.994 200.191 241.719 66.744 10.807-138.564-80.58 25.686-107.392-123.193-16.128-112.959 107.392-174.586 171.864-200.232 53.727-5.178 112.795-10.275 166.522-15.453-53.727-5.076-112.795-10.234-166.522-15.35-64.472-25.707-187.992-87.293-171.864-200.232zM128.944 322.996c-69.814 0-128.903 56.469-128.903 123.193 0 71.922 59.089 128.412 128.903 128.412 75.238 0 134.306-56.49 134.306-128.412 0-71.861-59.069-123.193-134.306-123.193z" />
<glyph unicode="&#xe602;" glyph-name="candid-shape-three" horiz-adv-x="5997" d="M5867.958 323.385c-75.238 0-134.306 51.312-134.306 123.131 0 71.881 59.069 128.33 134.306 128.33 69.834 0 128.924-56.449 128.924-128.33 0-66.682-59.089-123.131-128.924-123.131zM5352.202 323.385c-59.089 0-112.836 35.961-123.602 92.328-53.665 0-107.453-5.137-161.18-5.137-16.128-51.23-69.794-87.191-128.883-87.191-59.11 0-107.474 35.961-123.602 87.191-59.069 0-112.795 0-166.522 0-16.128-51.23-64.472-87.191-123.582-87.191-64.452 0-118.158 41.037-128.965 92.328-85.942 5.137-177.267 10.275-263.23 15.453 96.729-30.803 225.652-107.781 257.888-256.578 42.94-200.15-231.035-200.15-241.739-61.586-10.807 133.426 80.58-30.783 107.392 118.055 16.128 112.857-107.392 174.422-171.884 200.109-53.727 5.117-112.816 10.275-166.543 15.35 53.727 5.158 112.816 10.275 166.543 15.432 64.492 25.646 188.013 87.211 171.884 200.109-26.812 148.777-118.199-15.371-107.392 123.111 10.704 133.365 284.68 133.365 241.739-66.682-32.236-148.818-161.16-225.795-257.888-256.537 85.963 5.076 177.288 10.213 263.23 15.371 10.807 56.449 64.513 97.527 128.965 97.527 59.11 0 107.453-41.078 123.582-92.451 53.727 0 107.453 0 166.522 0 16.128 51.373 64.492 92.451 123.602 92.451 59.089 0 112.754-41.078 128.883-92.451 53.727 0 107.515-5.076 161.18-5.076 10.766 56.449 64.513 97.527 123.602 97.527 69.834 0 123.561-46.236 134.286-107.822 80.621-5.076 166.583-10.234 247.163-20.508-80.58-10.234-166.543-15.35-247.163-20.529-10.725-56.449-64.452-102.603-134.286-102.603zM3375.101 82.218c-91.305 0-193.375 15.432-295.446 41.016-257.888 71.82-510.393 220.679-623.209 287.341l-236.397 10.275c338.427-97.465 370.724-389.964 214.886-461.783-198.779-97.465-359.938 138.584-284.741 307.869 10.766-118.015 193.416-251.4 193.416-56.469 0 118.055-123.561 179.601-209.524 210.383l-296.121 11.134v-8.269h-1837.965v48.712h1837.965v-11.4l296.121 11.134c85.963 30.762 209.524 92.369 209.524 210.404 0 194.972-182.65 61.586-193.416-51.332-75.197 164.25 85.963 400.218 284.741 307.869 155.838-76.957 123.541-369.435-214.886-461.783l236.397 5.076c112.816 66.764 365.321 215.541 623.209 287.402 102.070 25.686 204.141 46.174 295.446 41.037 413.706-15.35 510.393-251.461 510.393-364.318 0-112.898-96.688-348.865-510.393-364.298zM3079.655 672.271c-231.055-46.154-467.432-138.502-590.994-189.875 166.502 5.199 333.105 0 499.648 20.529 32.236 5.199 64.452 10.356 91.346 15.473 16.087 0 26.833 5.096 37.598 5.096 42.981 0 85.942-5.096 128.944-10.213 85.942-10.356 171.925-30.885 257.868-66.764-85.942-35.941-171.925-51.291-257.868-66.682-43.002-5.137-85.963-10.295-128.944-10.295-10.766 5.158-21.511 5.158-37.598 5.158-26.894 5.137-59.11 15.371-91.346 20.529-166.543 15.35-333.146 10.254-499.648 15.35 123.561-51.23 359.938-143.64 590.994-189.855 306.211-61.545 590.953-51.25 590.953 225.795 0 277.086-284.741 287.341-590.953 225.754z" />
<glyph unicode="&#xe603;" glyph-name="candid-two" horiz-adv-x="4605" d="M3706.811 210.703c0-194.861 179.66-61.571 190.533 56.412 81.654-169.192-81.633-405.136-283.039-307.684-157.893 71.783-125.231 364.096 217.737 461.547l-244.983-10.319c-108.858-66.624-364.692-215.349-631.4-287.132-98.006-25.605-201.427-41.040-293.954-41.040-419.164 15.435-517.127 251.294-517.127 364.096 0 112.823 97.963 348.767 517.127 364.138 92.527 5.138 195.948-15.371 293.954-41.040 266.708-71.804 522.543-220.508 631.4-287.217l244.983-5.095c-342.968 92.335-375.629 384.605-217.737 461.547 201.406 92.25 364.692-143.566 283.039-307.684-10.873 112.844-190.533 246.134-190.533 51.274 0-117.919 119.795-179.511 212.279-210.275l685.936-25.647-685.936-25.605c-92.484-30.807-212.279-92.335-212.279-210.275zM2792.33 513.334c43.535 5.031 87.090 10.169 130.646 10.169 10.916 0 21.789-5.138 32.683-5.138 32.598-5.031 65.281-10.191 97.963-15.371 168.744-20.531 337.489-15.371 506.233-20.531-125.188 51.316-370.172 143.63-604.196 189.765-304.848 61.528-598.824 51.252-598.824-225.646 0-276.92 293.975-287.153 598.824-225.668 234.025 46.199 479.008 138.535 604.196 189.744-168.744-5.074-337.489 0-506.233-15.307-32.683-5.181-65.366-15.371-97.963-20.573-10.894 0-21.767 0-32.683-5.159-43.556 0-87.112 5.159-130.646 10.361-87.090 15.371-174.202 30.679-261.271 66.602 87.069 35.881 174.181 56.412 261.271 66.752zM1768.97 231.276c27.204-148.789 119.752 15.35 108.858-118.025-16.309-138.449-293.912-138.449-244.94 61.592 32.662 148.683 163.287 225.604 261.293 256.368-92.548-5.181-179.639-10.233-266.75-15.393-16.309-51.252-65.323-92.292-130.625-92.292-59.887 0-108.9 35.923-125.21 87.133-59.865 0-114.316 0-168.744 0-16.352-51.21-65.344-87.133-125.21-87.133s-114.273 35.923-130.646 87.133c-54.408 0-108.879 5.159-163.265 5.159-10.894-56.369-65.344-92.292-130.646-92.292-65.344 0-119.773 46.093-130.646 102.504-81.675 5.181-168.744 10.319-255.877 20.552 87.133 10.276 174.202 15.414 255.877 20.488 10.873 61.571 65.302 107.749 130.646 107.749 65.302 0 119.752-41.040 130.646-97.452 54.386 0 108.858 5.095 163.265 5.095 16.373 51.316 70.781 92.356 130.646 92.356s108.858-41.040 125.21-92.356c54.429 0 108.879 0 168.744 0 16.309 51.316 65.323 92.356 125.21 92.356 65.302 0 114.316-41.040 130.625-97.452 87.112-5.138 174.202-10.297 266.75-15.371-98.006 30.764-228.631 107.706-261.293 256.453-48.971 199.935 228.631 199.935 244.94 66.602 10.894-138.428-81.654 25.669-108.858-123.014-16.331-112.866 108.858-174.415 174.181-200.041 54.45-5.138 114.316-10.297 168.744-15.414-54.429-5.117-114.294-10.233-168.744-15.371-65.323-25.626-190.512-87.176-174.181-199.935zM135.912 323.526c-76.196 0-136.061 56.454-136.061 123.057 0 71.783 59.865 128.237 136.061 128.237 70.76 0 130.646-56.454 130.646-128.237 0-71.804-59.887-123.057-130.646-123.057z" />
</font></defs></svg>